…
``` r
hat <- df_augment %>%
  filter(hat > 2 * mean(hat))

student <- df_augment %>%
  filter(abs(student) > 2)

cooksd <- df_augment %>%
  filter(cooksd > 4 / (nrow(.) - (length(coef(lm_1)) - 1) - 1))

bind_rows(hat, student, cooksd)
```

    ## # A tibble: 246 × 10
    ##      row biden female   age  educ   dem   rep      hat  student    cooksd
    ##    <chr> <int>  <int> <int> <int> <int> <int>    <dbl>    <dbl>     <dbl>
    ## 1     48    70      0    80    17     0     0 0.005036  0.56855 4.092e-04
    ## 2    100    70      1    44     7     1     0 0.004959 -0.01899 4.494e-07
    ## 3    151   100      1    64     1     1     0 0.015371  1.01787 4.043e-03
    ## 4    250   100      1    76     3     1     0 0.011841  1.07146 3.439e-03
    ## 5    253    60      1    84    16     0     0 0.004457 -0.17805 3.550e-05
    ## 6    274    60      1    63     4     0     0 0.009328 -0.60292 8.560e-04
    ## 7    282    85      0    18     8     1     0 0.005995  0.98460 1.462e-03
    ## 8    289    70      0    79     9     1     0 0.004614  0.26259 7.995e-05
    ## 9    296    50      1    22     9     0     0 0.004497 -0.76763 6.656e-04
    ## 10   318    50      1    23     8     0     0 0.005379 -0.80827 8.834e-04
    ## # ... with 236 more rows
…
